<?xml version="1.0" encoding="UTF-8"?>
<svg width="27px" height="27px" viewBox="0 0 27 27" version="1.1" xmlns="http://www.w3.org/2000/svg" xmlns:xlink="http://www.w3.org/1999/xlink">
    <!-- Generator: Sketch 50.2 (55047) - http://www.bohemiancoding.com/sketch -->
    <title>Group 4</title>
    <desc>Created with Sketch.</desc>
    <defs></defs>
    <g id="Page-1" stroke="none" stroke-width="1" fill="none" fill-rule="evenodd">
        <g id="Facebook-icon" transform="translate(-56.000000, -55.000000)">
            <g id="Group-4" transform="translate(56.000000, 55.000000)">
                <rect id="Rectangle-14" fill="#FFFFFF" x="0" y="0" width="27" height="27" rx="4"></rect>
                <path d="M18.1431397,27 L18.1431397,16.5085857 L21.8418968,16.5085857 L22.3957332,12.4198953 L18.1431397,12.4198953 L18.1431397,9.8095249 C18.1431397,8.6257547 18.4884041,7.81905437 20.2713687,7.81905437 L22.5454545,7.81810827 L22.5454545,4.16115085 C22.15216,4.11132338 20.802239,4 19.2317109,4 C15.9529685,4 13.7082527,5.90542745 13.7082527,9.40459791 L13.7082527,12.4198953 L10,12.4198953 L10,16.5085857 L13.7082527,16.5085857 L13.7082527,27 L18.1431397,27 Z" id="f" fill="#475993" fill-rule="nonzero"></path>
            </g>
        </g>
    </g>
</svg>