<svg version="1.1" xmlns="http://www.w3.org/2000/svg" xmlns:xlink="http://www.w3.org/1999/xlink" x="0px" y="0px" xml:space="preserve" style="width: 20px;height: 27px;">
<circle class="st0" cx="10.1" cy="7.9" r="2.2"/>
<path class="st0" d="M17.5,7.9c0,3.2-4.4,9.9-6.4,12.9c-0.5,0.7-1.5,0.7-2,0c-2-2.9-6.4-9.7-6.4-12.9c0-4.1,3.3-7.4,7.4-7.4
    S17.5,3.8,17.5,7.9z"/>
<path class="st0" d="M6.5,17.3l-0.4,0.1l-1.2,0.4c-0.2,0.1-0.4,0.2-0.5,0.5l-3.8,6.9c-0.1,0.2,0.1,0.5,0.4,0.4l4.4-2.3l4.2,1.9
    c0.3,0.1,0.6,0.1,0.8,0l4.2-1.9l4.4,2.3c0.3,0.1,0.5-0.2,0.4-0.4l-3.8-6.9c-0.1-0.2-0.3-0.4-0.5-0.5l-1.7-0.5"/>
</svg>